%YAML 1.1
%TAG !u! tag:unity3d.com,2011:
--- !u!114 &11400000
MonoBehaviour:
  m_ObjectHideFlags: 0
  m_CorrespondingSourceObject: {fileID: 0}
  m_PrefabInstance: {fileID: 0}
  m_PrefabAsset: {fileID: 0}
  m_GameObject: {fileID: 0}
  m_Enabled: 1
  m_EditorHideFlags: 0
  m_Script: {fileID: 11500000, guid: dc234ab28a32840f5adfb84a075bc023, type: 3}
  m_Name: InkLibrary
  m_EditorClassIdentifier: 
  inkLibrary:
  - compileAutomatically: 0
    inkAsset: {fileID: 102900000, guid: 1460e815e969b43b8a83a7caa8b48c27, type: 3}
    jsonAssetPath: {fileID: 0}
    jsonAsset: {fileID: 4900000, guid: 6cf48bb6d89824cc69e35b43f9a1aca6, type: 3}
  - compileAutomatically: 0
    inkAsset: {fileID: 102900000, guid: 400d8ff6eb655e64595d588b8a2244ac, type: 3}
    jsonAssetPath: {fileID: 0}
    jsonAsset: {fileID: 4900000, guid: b97df018ea8cacf4d870f4fdf0e3e761, type: 3}
  - compileAutomatically: 0
    inkAsset: {fileID: 102900000, guid: c27989f98e51fb7458328ba6a2d5a2b1, type: 3}
    jsonAssetPath: {fileID: 0}
    jsonAsset: {fileID: 4900000, guid: 60b4aaa82b6ffa549896655487db183d, type: 3}
  - compileAutomatically: 0
    inkAsset: {fileID: 102900000, guid: b9617848a5e116f45aa196203790f32e, type: 3}
    jsonAssetPath: {fileID: 0}
    jsonAsset: {fileID: 4900000, guid: c24d9da4795f324439ceb70b9c9c06ff, type: 3}
  - compileAutomatically: 0
    inkAsset: {fileID: 102900000, guid: 6f068acfd7f7ae14785d44210def0195, type: 3}
    jsonAssetPath: {fileID: 0}
    jsonAsset: {fileID: 4900000, guid: 84f049c7c5776214cb7971326fbebca9, type: 3}
  - compileAutomatically: 0
    inkAsset: {fileID: 102900000, guid: 43c2ca4ece4320748b4528a1539cbe08, type: 3}
    jsonAssetPath: {fileID: 0}
    jsonAsset: {fileID: 4900000, guid: 160e9ae6c3e57f742b158680f48f6a0b, type: 3}
  - compileAutomatically: 0
    inkAsset: {fileID: 102900000, guid: d2d0db3a316dd8347809b8e60923d231, type: 3}
    jsonAssetPath: {fileID: 0}
    jsonAsset: {fileID: 4900000, guid: 5e354676b82c07d4b926d7576d9a4570, type: 3}
  pendingCompilationStack: []
  compilationStack: []
